%%MatrixMarket matrix coordinate real general
%
3175 4 48
1 1 1
2 2 1
3 3 1
4 2 1
5 2 1
6 1 1
7 2 1
8 2 1
9 2 1
10 2 1
11 1 1
12 2 1
13 2 1
14 3 1
15 2 1
16 2 1
17 3 1
18 4 1
19 1 1
20 3 1
21 3 1
22 2 1
23 2 1
24 3 1
25 3 1
26 2 1
27 2 1
28 2 1
29 2 1
30 1 1
31 2 1
32 2 1
33 2 1
34 1 1
35 2 1
36 4 1
37 2 1
38 2 1
39 4 1
40 4 1
41 2 1
42 1 1
43 2 1
44 3 1
45 1 1
46 2 1
47 4 1
48 2 1
